Sectoral AI adoption and its effects on employment and economic output in EU
…
Adding mean for each indicator_sector variable

Join all tables to cover 27 EU countries, annual 2021-2024
dataset

4.1.1.1 AI hiring
data

## AI Hiring - Original dimensions: 4042 rows, 3 columns

## AI Hiring - Preprocessed dimensions: 96 rows, 3 columns

## # A tibble: 96 × 3
##    country  year ai_hiring_index
##    <chr>   <dbl>           <dbl>
##  1 Austria  2021           11.8 
##  2 Austria  2022            1.56
##  3 Austria  2023            4.80
##  4 Austria  2024           12.9 
##  5 Belgium  2021           10.0 
##  6 Belgium  2022            3.47
##  7 Belgium  2023            7.73
##  8 Belgium  2024            9.80
##  9 Cyprus   2021            4.71
## 10 Cyprus   2022           12.1 
## # ℹ 86 more rows

## Unique countries in AI Hiring dataset: 24

4.1.1.2 Employment
data

## Employment - Original dimensions: 405 rows, 12 columns

## Employment - Preprocessed dimensions: 108 rows, 6 columns

## # A tibble: 108 × 6
##    country   year emp_rate_female emp_rate_male emp_rate_Total emp_gender_gap
##    <chr>    <int>           <dbl>         <dbl>          <dbl>          <dbl>
##  1 Austria   2021            71.3          79.9           75.6           8.60
##  2 Austria   2022            73.4          81.2           77.3           7.8 
##  3 Austria   2023            73.3          81.1           77.2           7.8 
##  4 Austria   2024            73.9          80.8           77.4           6.90
##  5 Belgium   2021            66.8          74.5           70.6           7.7 
##  6 Belgium   2022            68.1          75.7           71.9           7.60
##  7 Belgium   2023            68.3          75.9           72.1           7.60
##  8 Belgium   2024            68.3          76.3           72.3           8   
##  9 Bulgaria  2021            69.1          77.5           73.3           8.40
## 10 Bulgaria  2022            72.1          79.6           75.9           7.5 
## # ℹ 98 more rows

## Unique countries in employment dataset: 27

4.1.1.3 Labour
productivity per hour worked

## Productivity - Original dimensions: 1360 rows, 21 columns

## Productivity - Preprocessed dimensions: 108 rows, 17 columns

## # A tibble: 108 × 17
##    country   year  pc_A  pc_B  pc_C  pc_D  pc_E  pc_F  pc_G  pc_H  pc_I  pc_J  pc_K  pc_M  pc_N  pc_R  pc_S
##    <chr>    <int> <dbl> <dbl> <dbl> <dbl> <dbl> <dbl> <dbl> <dbl> <dbl> <dbl> <dbl> <dbl> <dbl> <dbl> <dbl>
##  1 Austria   2021   5.8  24.3   5.6  -4.3  -9.7 -11    -3.1  -4.6 -19.3   2     9.5  -0.3  -2.8  -3     9.2
##  2 Austria   2022   9.7 -12.6   5.1   7.1  -2.5  -3.7  -3.2  10.8  36.6   1.9   7.7   7.9   3.1  26.2   2.4
##  3 Austria   2023   6.1 -28.6  -2.6   5.8  -0.7  -6.9  -5.7  -2.4   2    -2.1  -6.6  -3.1   1.4   3.9  -3.8
##  4 Austria   2024   5.8  NA    -4.3  NA    NA    -1.7  NA    NA    NA     1.9   4.3  NA    NA    NA    NA  
##  5 Belgium   2021  -0.3   4.6 -10.5 -10.8  -0.2  -2.1   4.1  -0.8   4.4   1.9   3.1  -2.8  -3.2   6.9  -7.5
##  6 Belgium   2022   1.8  -9.7   9.9 -32.3   1    -4.4   2.9  -1.5  -8.9   0.5  -5.8   0.1  -4.9   1.1  -6.2
##  7 Belgium   2023   2.7  -9.1  -1.1  11.6  -0.7  -1.5   0.5  -1     6.1   0.3   2.1  -2.3  -1.1  -1.9   2.5
##  8 Belgium   2024   3.5  NA     0.3  NA    NA     0.9  NA    NA    NA     3.8   3.4  NA    NA    NA    NA  
##  9 Bulgaria  2021  38.6 -13.5   0.3  41   -21.1 -12.2   9.4   6.4  43.7  -2.2  25    12.6  13.9 -12.7   2  
## 10 Bulgaria  2022  -3.5 -11.2  26.6  -8.3  20.4   7.2  -7.6  10.3  11.2  -4     7.5   0.8   2.9  12   -22.8
## # ℹ 98 more rows

## Unique countries in productivity dataset: 27

4.1.1.4 GDP data

## GDP - Original dimensions: 400 rows, 11 columns

## GDP - Preprocessed dimensions: 100 rows, 3 columns

## # A tibble: 100 × 3
##    country   year gdp_growth
##    <chr>    <dbl>      <dbl>
##  1 Austria   2021      5.28 
##  2 Austria   2022      5.44 
##  3 Austria   2023     -0.835
##  4 Austria   2024     -1.34 
##  5 Belgium   2021      6.43 
##  6 Belgium   2022      4.28 
##  7 Belgium   2023      1.21 
##  8 Belgium   2024      1.02 
##  9 Bulgaria  2021      7.42 
## 10 Bulgaria  2022      4.13 
## # ℹ 90 more rows

## Unique countries in gdp dataset: 25

4.1.1.5 AI adoption
data

## AI Adoption - Original dimensions: 1458 rows, 23 columns

## AI Adoption - Preprocessed dimensions: 108 rows, 20 columns

## # A tibble: 108 × 20
##    country   year AI_PANY_C AI_TANY_C AI_PANY_E AI_TANY_E AI_PANY_F AI_TANY_F AI_PANY_G AI_TANY_G AI_PANY_H
##    <chr>    <int>     <dbl>     <dbl>     <dbl>     <dbl>     <dbl>     <dbl>     <dbl>     <dbl>     <dbl>
##  1 Austria   2021      9.06      9.61      5.33      5.33      2.2       3.12      5.94      6.94      6.16
##  2 Austria   2022     10.3      11.0       6.24      6.24      3.16      3.7       7.03      7.64      7.2 
##  3 Austria   2023     11.6      12.3       7.16      7.16      4.11      4.28      8.12      8.35      8.24
##  4 Austria   2024     21.9      22.7      17.8      17.8       7.19      7.35     14.9      15.7      12.8 
##  5 Belgium   2021      7.46     10.4       4.66      8.83      4.81      8.3       5.55      8.08      5.12
##  6 Belgium   2022      9.59     12.9      NA        NA         4.32      6.74      5.8       9.16      7.52
##  7 Belgium   2023     11.7      15.3      NA        NA         3.83      5.17      6.05     10.2       9.92
##  8 Belgium   2024     18.0      23.2      NA        NA         8.25     11.1      17.1      22.5      20.5 
##  9 Bulgaria  2021      1.87      2.88     NA        NA        NA         1.47      1.31      2.47      1.16
## 10 Bulgaria  2022      1.70      2.72     NA        NA        NA        NA         1.36      2.49      1.11
## # ℹ 98 more rows
## # ℹ 9 more variables: AI_TANY_H <dbl>, AI_PANY_I <dbl>, AI_TANY_I <dbl>, AI_PANY_J <dbl>, AI_TANY_J <dbl>,
## #   AI_PANY_M <dbl>, AI_TANY_M <dbl>, AI_PANY_N <dbl>, AI_TANY_N <dbl>
…
